,Country,PositiveCount,NeutralCount,NegativeCount
0,Australia,2.0,8.0,2.0
1,Brazil,1.0,0.0,0.0
2,France,1.0,3.0,1.0
3,Germany,1.0,2.0,0.0
4,Gibraltar,2.0,0.0,1.0
5,Ireland,3.0,2.0,0.0
6,Isle of Man,1.0,0.0,0.0
7,Jamaica,1.0,2.0,0.0
8,Martinique,2.0,0.0,0.0
9,New Zealand,1.0,1.0,0.0
10,Russia,5.0,7.0,7.0
11,South Africa,1.0,0.0,0.0
12,Switzerland,1.0,0.0,0.0
13,United Arab Emirates,1.0,0.0,0.0
14,United Kingdom,63.0,70.0,31.0
15,United States,9.0,15.0,9.0
16,Zambia,1.0,0.0,0.0
17,Anguilla,0.0,3.0,0.0
18,Bahamas,0.0,1.0,0.0
19,Belgium,0.0,1.0,0.0
20,Bermuda,0.0,1.0,0.0
21,Mexico,0.0,2.0,0.0
22,Somalia,0.0,1.0,0.0
23,Turkey,0.0,2.0,0.0
24,Zimbabwe,0.0,1.0,1.0
25,Antarctica,0.0,0.0,1.0
26,Canada,0.0,0.0,1.0
27,Chile,0.0,0.0,1.0
28,Dominica,0.0,0.0,1.0
29,Romania,0.0,0.0,1.0
30,Spain,0.0,0.0,1.0
