,Tweet,Country
0,Brexit is sixty thousand racist grossly far-right embarrassment-pissers,United Kingdom
1,RT @bbcquestiontime: ‘What I’m tired of is politicians telling me I didn’t know what I was voting for… yes I did. I voted out’ says this au…,United Kingdom
2,"RT @gavinesler: No prime minister can bind their successor, so Theresa May can agree with Jeremy Corbyn for a soft Tory Brexit and as soon…",United Kingdom
3,"RT @doctor_oxford: Excellent. £50 million. Just the annual salary of 2000 NHS nurses. 

The never-ending harm inflicted by Brexit😔 https://…",United Kingdom
4,"RT @afneil: Bank of England now quite cheery: forecasts GDP growth 1.5% 2019, 1.6% 2020 and 2% 2021 (upgrades Feb's forecasts of 1.2%, 1.5%…",United Kingdom
5,"RT @mrjamesob: The ‘Brexit Party’, founded by a toxic Islamophobe, exists only to allow Farage to pretend that the EU election is the refer…",United Kingdom
6,#bbcqt Please listen carefully. None of you are going to get what you want regarding Brexit.,Spain
7,RT @bbcquestiontime: ‘What I’m tired of is politicians telling me I didn’t know what I was voting for… yes I did. I voted out’ says this au…,United States
8,RT @mrjamesob: So people who want to stop Brexit should vote for a party that doesn't want to stop Brexit in order to stop another party th…,United Kingdom
9,"RT @CrypticMirror: @NatureNews Body farm, or just how they are disposing of the poor/disabled after #Brexit? 
Look, given the Tories polici…",United Kingdom
10,"RT @Brexit_Support: Petition to deselect Yvette Cooper MP signed more than 22,900 times  @YvetteCooperMP TIME FOR CHANGE. we need to get ri…",United Kingdom
11,"If #brexit has done anything it's shown that there are absolutely shedloads of WTO experts in the uk. 
Or bullshitters
#bbcqt",New Zealand
12,"RT @theSNP: 👩‍🏫 Experts agree that Brexit is the biggest crisis facing the country.

🏴󠁧󠁢󠁳󠁣󠁴󠁿 While the Tories laugh on the sidelines, we’re…",Brazil
13,"@HenryNewman It’s not a deal, it’s a treaty, the like of which you’d sign if you’d been defeated in war. It leaves… https://t.co/Ts18w2rhbD",United Kingdom
14,"RT @StevieJ2019: IDS on the Williamson sacking

""Will a similar inquiry take place into who leaked the Cabinet Secretary’s peculiarly hyste…",United States
15,"RT @Femi_Sorry: Kate Andrews says that the government has failed if they don't deliver the ""Brexit the way that it should have"". 
Brexit wa…",United Kingdom
16,Politicians haven’t failed because of their inability to agree on #Brexit. We don’t care whether they agree or not.… https://t.co/TA6rVKfi5m,United Kingdom
17,RT @Nigel_Farage: I’ll be in Fylde with Ann Widdecombe and the North West MEP candidates this Saturday for a major Brexiteer rally! Book no…,United Kingdom
18,"It took them 30 fucking years to sort out what happened at a football match at Hillsborough, and people think Brexi… https://t.co/0cAzawetns",Russia
19,"RT @OfLeavers: We have been notified of a protest in Nottingham on Sunday against bias on the BBC on Brexit. 

Considering tonight’s BBC Qu…",United States
20,"RT @bbcquestiontime: ‘Leave means leave’
This audience member questions why the UK doesn’t ‘just break-off’ from the EU. #Brexit #bbcqt htt…",United Kingdom
21,"RT @bbcquestiontime: ‘It’s taking longer to detach from Europe politically than it did geologically’ 
Comedian @TheSimonEvans on Brexit. #b…",United Kingdom
22,RT @gavinesler: Am I the only person shocked that Jacob Rees Mogg does not see leaking from the most sensitive committee about our national…,United Kingdom
23,RT @boye_g: Brexit makes the case for an independent Scotland https://t.co/vlBwUw05k6,Mexico
24,"RT @BremainInSpain: Utterly disgraceful, how many lives are at risk due to Brexit. Please all remain parties join together to stop this.
ht…",Martinique
25,This fuckwit pretending to vote doesn't even know when his local elections are... Hello Brexit. https://t.co/M9GIML2Yq6,Ireland
26,"RT @peoplesvote_uk: MUST-WATCH: The Good Friday Agreement was negotiated &amp; then put to the people.

As this powerful video by @OFOCBrexit m…",United Kingdom
27,"We've left everything far too late. The deal, votes, cross-party talks etc. should not have been left to the last m… https://t.co/jc3WnEZ6Ci",United Kingdom
28,RT @andywigmore: Nigel Farage's Brexit Party surges to a NINE point poll lead ahead of the European elections ⁦@brexitparty_uk⁩ ⁦@LeaveEUOf…,United States
29,Looks like @bbcquestiontime are starting to see how biased they have been. Please RT https://t.co/o1mND1X24V,United Kingdom
30,@OwenJones84 Shut up. Labour are brexit. You're farages minions. Stand up for remain. Your party is a beneficiary of the 2016 corruption.,Bahamas
31,"RT @WestmonsterUK: LEAVE: Brexit Party now has 9-point lead over Labour in latest EU Election poll.

Brexit on 30%, Labour 21% and Tories 1…",United Kingdom
32,"Anyone got a milkshake , i need to throw it #brexit",Anguilla
33,"RT @nickreeves9876: Farage: ""Brexit is the best thing to happen for Russia"", ""I want the EU to be destroyed""

Farage is a traitor, colludin…",United Kingdom
34,"@Sillyshib I've been dissillusioned with many things since Brexit, but the thing I am most dissillusioned with is p… https://t.co/Vnstycgrre",Jamaica
35,"RT @bbcquestiontime: ‘Leave means leave’
This audience member questions why the UK doesn’t ‘just break-off’ from the EU. #Brexit #bbcqt htt…",United Kingdom
36,I don't think people spoiling ballots at the #LocalElections2019 in protest at #Brexit (on both sides) understand w… https://t.co/NuPaBXXgk1,United States
37,"@BBCNewsnight @katrinjak @MarkUrban01 Oh, like Brexit then... To difficult to do 😣",United States
38,"@MikeBubbins @WalesOnline @ruthmosalski While you (and me) may utterly disagree with his views, can we say he is no… https://t.co/jXKSkbMaoR",Australia
39,"RT @estwebber: Donald Tusk: don't waste this time

UK: sack the defence sec
royal baby?
euro elections 
check facebook 
woo! summer! 
front…",United Kingdom
40,"@NatureNews Body farm, or just how they are disposing of the poor/disabled after #Brexit? 
Look, given the Tories p… https://t.co/4n2lGNmqXL",United Kingdom
41,Really @KenClark No one in the audience gives s damn about the ##Backstop ? #Brexit 🤔,United Kingdom
42,#bbcqt brexit is being over complicated on purpose the people smell the bullshit big time...,United States
43,#bbcqt emily thornberry what know  spectrum of outcomes means #BREXIT https://t.co/82JlCcSnqW,France
44,"RT @MichelleThomson: @ScotlandTonight @RuthDavidsonMSP Very evident the play for her future - cleansed accent, use of ‘we’ (them) - the gam…",Zambia
45,British teenagers able to apply for free EU rail passes despite Brexit https://t.co/B0xKa1Acod,Russia
46,@andrew_lilico Utterly ludicrous. Corbin no worse than Benn but with much less power thanks to Single Market and NA… https://t.co/9r0T5ETEqb,United Kingdom
47,@MickGreenhough We already know about the Brexit betrayal because May brings out a new plan to stay in the EU each… https://t.co/PGsV3uKHrt,United Kingdom
48,"RT @WestmonsterUK: LEAVE: Brexit Party now has 9-point lead over Labour in latest EU Election poll.

Brexit on 30%, Labour 21% and Tories 1…",United Kingdom
49,RT @ajhanlaurence: Labour's biggest mistake on Brexit? I mean apart from Corbyn. It was committing to end freedom of movement. It has becom…,Russia
50,"RT @LeaveEUOfficial: WATCH | @KateAndrs: ""A customs union means the EU will continue to set UK taxes when the UK does not have a seat at th…",United States
51,"RT @brexitparty_uk: ""To restore Britain's reputation in the world, and to implement the result of the referendum, vote for The Brexit Party…",United Kingdom
52,@Andrew_Adonis But do Labour want to stop brexit Andrew?,United Kingdom
53,RT @StandUp4Brexit: “Why doesn’t the Govt drive a Tory deal through? The answer may lie in..the belief that it’s the UK that wanted the Bac…,United Kingdom
54,#LeaveMeansLeave ... literally the only phrase less meaningful than #BrexitMeansBrexit 🤦‍♂️ #BBCQT #Brexit,United Kingdom
55,RT @DVATW: This means that some within the cabinet are open to doing a deal with Corbyn and keeping us in the EU customs union. It’s a cabi…,Bermuda
56,"RT @skisidjames: The European parliament's outspoken Brexit chief, Guy Verhofsdat, is coming to Britain next week to knock on doors in the…",United Kingdom
57,"@LeaveEUOfficial @KateAndrs Everybody in Politics and country knows by now, that staying in the CU is not Leaving t… https://t.co/Y8Gl4PSoaF",Germany
58,"RT @GiuliaSavini1: Labour Policy on #Brexit explained: 

The #labour Party will support a #peoplesvote ONLY after trying to:

- call a Gene…",Turkey
59,RT @skinnybunty: @rubium @theresa_may @Conservatives  Can't wait until Brexit Party stands in GE. Fiasco today voting for Local Councillors,United Kingdom
60,Bloody hell who invited the Brexit family on the show... #Questiontime,United Kingdom
61,RT @Nigel_Farage: I’ll be in Fylde with Ann Widdecombe and the North West MEP candidates this Saturday for a major Brexiteer rally! Book no…,United Kingdom
62,"@GeorgeAylett And you need remain supporters to win a GE - or anything else for that matter. 

Remaon voters make u… https://t.co/xbdaaDIpuY",United Kingdom
63,"RT @LeaveEUOfficial: WATCH | @KateAndrs: ""A customs union means the EU will continue to set UK taxes when the UK does not have a seat at th…",United States
64,"#BBCQT

Going ahead with #Brexit means choosing:

- either to leave the customsunion &amp;singlemarket at great economi… https://t.co/Kkuu5f68oB",United Kingdom
65,"RT @peoplesvote_uk: ""Parliament alone can't get us out of this mess. It must put #Brexit back to the people.""

Sally has a message for @the…",United Kingdom
66,Farage warns #TheresaMay if her EU deal succeeds support for #BrexitParty 'will EXPLODE' #EuropeanUnion… https://t.co/LbPSctTLt7,United Kingdom
67,RT @Nigel_Farage: I’ll be in Fylde with Ann Widdecombe and the North West MEP candidates this Saturday for a major Brexiteer rally! Book no…,United States
68,"RT @LeaveEUOfficial: WATCH | @KateAndrs: ""A customs union means the EU will continue to set UK taxes when the UK does not have a seat at th…",Australia
69,"RT @Cornwall4EU: Hey, @bbcquestiontime - what makes you think we should be constantly hearing from mouthpieces of the secretive ultra-rich…",Russia
70,"Only few days ago, the Poms were thinking, they could have all English Club Champion League Final between… https://t.co/CJJhtGQHaj",Australia
71,"RT @freemovecreate: 'Concerns were raised that a proposal to introduce a £30,000 salary threshold for workers from outside of the UK could…",United Kingdom
72,"RT @iandonald_psych: The prime minister of Iceland who are in the EEA but not a customs union says, on Newsnight, that the most important t…",United States
73,"RT @spikedonline: With his claim that Brexiteers are worse than Nazis, David Lammy has exposed his own historical ignorance and his ugly co…",Russia
74,@TheSimonEvans #bbcqt Strangely flippant about the fragility of peace in NI as a consequence of Brexit. Simon compa… https://t.co/H2thONsZwV,United Kingdom
75,"RT @BrexitStewart: From leaks to talks with Labour, this Government is deeply disingenous on Brexit https://t.co/D9y9MmgShk via @Telegraph",United Kingdom
76,"RT @PickardJE: Chris Grayling has confirmed the cost of cancelling the DFDS and Brittany Ferries contracts: £43.8m. 

(On top of £33m out-o…",United Kingdom
77,"RT @estwebber: Donald Tusk: don't waste this time

UK: sack the defence sec
royal baby?
euro elections 
check facebook 
woo! summer! 
front…",United Kingdom
78,"@GeorgeH11549373 I don't get his argument, You want powers back in Scotland's hands after Brexit but want to stay i… https://t.co/GLmwf1WRTF",United Kingdom
79,Clueless politician blabbing bout #Brexit as per usual 🙉🙉🙉🙉  yawn #bbcqt,United Kingdom
80,Very happy to see @EmilyThornberry consistently calling for a Brexit deal to go back to the people tonight. A voice… https://t.co/K8K722b8X7,United States
81,"‘Leave means leave’
This audience member questions why the UK doesn’t ‘just break-off’ from the EU. #Brexit #bbcqt https://t.co/uzJHKbvWSu",Russia
82,"RT @Change_Britain: Emily Thornberry says she's been ""trying to keep the government honest"" on Brexit. Hmmm #bbcqt https://t.co/aF93JL6UEM",Russia
83,"It’s only about Brexit

⬇️⬇️⬇️ https://t.co/ULYeMRLW12",Russia
84,"RT @StevieJ2019: IDS on the Williamson sacking

""Will a similar inquiry take place into who leaked the Cabinet Secretary’s peculiarly hyste…",United Kingdom
85,"@stewjamesvi @PnPCBC Heed the warning about Brexit, referendums have sad consequences.",Canada
86,@bbcquestiontime the labour MP can’t bear to say that the vote was lost because she wanted to stay face it please s… https://t.co/353GPjPQJC,Zimbabwe
87,"RT @GiuliaSavini1: Labour Policy on #Brexit explained: 

The #labour Party will support a #peoplesvote ONLY after trying to:

- call a Gene…",Russia
88,Brexit makes the case for an independent Scotland https://t.co/xyuv9shgR4,United Kingdom
89,"Ken, the Withdrawal agreement is NOT leaving the EU. It’s brexit in name only. #bbcqt",United Kingdom
90,"@zatzi I entirely disagree with your position on Brexit, but there is no excuse for hateful comments about your chi… https://t.co/ln3qyUOJmR",Russia
91,"RT @skisidjames: The European parliament's outspoken Brexit chief, Guy Verhofsdat, is coming to Britain next week to knock on doors in the…",United Kingdom
92,"RT @peoplesvote_uk: ""Parliament alone can't get us out of this mess. It must put #Brexit back to the people.""

Sally has a message for @the…",United Kingdom
93,@blonde_quinn @Demsaregormless You aren't really a legitimate BREXIT party. You are really a racist party. Tommy Ro… https://t.co/Z6tprT6LHY,United Kingdom
94,RT @ajhanlaurence: Labour's biggest mistake on Brexit? I mean apart from Corbyn. It was committing to end freedom of movement. It has becom…,Romania
95,"RT @ashman06: Shhhhh. Don't mention #Brexit.... 

BBC News - Bombardier to sell Belfast operations https://t.co/b3q4sLCMd2",United Kingdom
96,RT @julie4nw: The health secretary has gagged all NHS Trusts from releasing their Brexit impact assessments and now we are beginning to see…,Mexico
97,"@DavidJe17386607 @RobbieMartian @mrjamesob @UKLabour It's true though, the ordinary people of this country have bee… https://t.co/kpVMP3Q6bz",United States
98,RT @Rateandvote: 2nd #brexit referendum? 🤔#bbcqt,United Kingdom
99,#bbcqt Fed up with these traitorous MP's spouting out a load of crap. Fact is we voted to leave the EU now just blo… https://t.co/WdlL0thVve,United Kingdom
100,"RT @LeaveEUOfficial: WATCH | @KateAndrs: ""A customs union means the EU will continue to set UK taxes when the UK does not have a seat at th…",United Kingdom
101,RT @bbcquestiontime: ‘What I’m tired of is politicians telling me I didn’t know what I was voting for… yes I did. I voted out’ says this au…,United Kingdom
102,"RT @francesweetman: I am a former Labour staffer, councillor, and was a Labour member for eight years. 

Today I won't be voting Labour. I…",United Kingdom
103,RT @GeoffNorcott: Remember people flirting with the idea that if you discreetly cancelled Brexit hardly anyone would mind? https://t.co/L6n…,United Kingdom
104,RT @courty1793: @OwenJones84 The own goal would be voting for Labour to try and stop Farage only to be told like they were in 2017 when the…,United Kingdom
105,"RT @JulianRobinso16: @OwenJones84 Dear Owen, What’s the point in voting Labour as an anti Brexit vote when they’re not! Labour have cocked…",Australia
106,RT @MahgdalenRose: Major elections in Europe happening today. The outcome of them will give us major insight into what messaging/strategies…,United States
107,@AusterityMyArse @Rachael_Swindon Wrong. Everything is about Brexit https://t.co/QCTj5dDCO2,France
108,"RT @LeaveEUOfficial: WATCH | @KateAndrs: ""A customs union means the EU will continue to set UK taxes when the UK does not have a seat at th…",United Kingdom
109,"RT @Sillyshib: If brexit is such a great idea, why are they scared of a confirmatory referendum? We'll all vote to leave surely?",Ireland
110,RT @IanDunt: I live in North London. It's about as Remain an area as you can get. Incredible that I have a recieved a Brexit party election…,United Kingdom
111,"RT @stephencrowther: @OwenJones84 Labour want brexit, so no.",Australia
112,@JamieBrysonCPNI @naomi_long But surely it follows from your argument about what makes one nationalist then the cur… https://t.co/k3WZLmeBNP,Ireland
113,@KarenProcter8 @Nigel_Farage But she won't completely condemn violence. Whatever party she may still or may not be… https://t.co/HsPm6uRFPV,United Kingdom
114,@RedHotSquirrel You do realise Question Time was a show before Brexit. And also Ken Clarke is the longest running M… https://t.co/TISoIKgdiq,Jamaica
115,"RT @peterjukes: If you voted Labour in 2017, you're told you supported Brexit. Until Corbyn disavows this, the same could be true of EU ele…",United Kingdom
116,RT @USITA_forum: British teenagers able to apply for free EU rail passes despite Brexit https://t.co/68TQtXHEoX,United Kingdom
117,Keep the pressure on the biased @bbcquestiontime we need to see more of this. Please RT https://t.co/faBmfYxKge,United Kingdom
118,"RT @TomOHalloran10: Great discussion this evening on the upcoming EU elections and #brexit with @MaryCMurphy @UCC , kindly hosted by @Voxpr…",Ireland
119,"RT @LeaveEUOfficial: WATCH | @KateAndrs: ""A customs union means the EU will continue to set UK taxes when the UK does not have a seat at th…",United Kingdom
120,"RT @AllianceBE: Hey Remainers, time to push out your prediction of a #Brexit recession for ANOTHER 12 months.

The Bank of England has just…",United Kingdom
121,"RT @usxta: Why only 18 year olds 😠?!

British teenagers able to apply for free EU rail passes despite Brexit https://t.co/etxRTNIS2V",United Kingdom
122,"RT @LeaveEUOfficial: WATCH | @KateAndrs: ""A customs union means the EU will continue to set UK taxes when the UK does not have a seat at th…",United Kingdom
123,"RT @SimonBruni: Can't beat train-hopping around Europe 
 https://t.co/yZaxVccV6t",United Kingdom
124,"RT @LeaveEUOfficial: WATCH | @KateAndrs: ""A customs union means the EU will continue to set UK taxes when the UK does not have a seat at th…",United Kingdom
125,"RT @LeaveEUOfficial: WATCH | @KateAndrs: ""A customs union means the EU will continue to set UK taxes when the UK does not have a seat at th…",United Kingdom
126,"RT @ThargianMawn: @OwenJones84 I'm confused as hell, Owen. Genuinely. Why is Labour facilitating this? Coming off the fence on Brexit, in f…",Australia
127,RT @KilclooneyJohn: PM sacks a BREXIT Cabinet Minister and appoints another Remainer to the Cabinet! Reach your own conclusions why she opp…,United Kingdom
128,RT @Bearlykat: British teenagers able to apply for free EU rail passes despite Brexit https://t.co/FwLg3c1InV,United Kingdom
129,RT @DavidLammy: Matteo Salvini is spreading far right conspiracy theories about Europe becoming an “Islamic caliphate”. Remember Nigel Fara…,Martinique
130,"@bbcquestiontime #bbcqt Ain't. Gonna. Happen.

Forget it. May is basically over already, leaving just June before a… https://t.co/SuKgK7yjbq",France
131,RT @amalmerzouk: «#MiFIDII has already encouraged the rapid growth of an #innovative #RegTech industry and this is set to continue in the f…,Isle of Man
132,RT @ArchRose90: .@KateAndrs claims that a CU is still being governed by EU rule &amp; that when it comes to Brexit politicians just don’t get i…,United States
133,"RT @RealNatalieRowe: We were all thinking or maybe it was  just me, that Brexit would finish  #TheresaMay but it now turns out it could be…",United States
134,@AB1ackSheep @BBCNewsNI Like in so many other cases brexit is the straw that broke the camels back..Bombardier are… https://t.co/A5Cxse3tLt,United Kingdom
135,"RT @SpectatorUSA: ""For once, @Nigel_Farage does not need to exaggerate the failure of the governing elite — which is why his Brexit party w…",Russia
136,"RT @SiobhanBenita: Sending the very best of luck to all our amazing candidates and activists in the #LocalElections2019 today. 
People up a…",United Kingdom
137,"Wanna take out your BREXIT frustration with this comical Goverment?? 🖕

Slap the hard Brexit outa them!! 🤣

Can you… https://t.co/32fa6XyH9f",United Kingdom
138,Watching @bbcquestiontime #bbcqt where they are discussing #Brexit The @CWHerald has published my letter about… https://t.co/M4n4Y3uRpZ,United Kingdom
139,"@MikeH_PR Here’s Labour’s Brexit policy, set out by one of Corbyn’s faithful. To make sense of it, you have to turn… https://t.co/1PO2QKyBzG",United Kingdom
140,RT @georgegalloway: I think today’s turnout will be abysmal. Today’s poll for the #Euros shows Tory&amp;Labour sharing just 34% between them. J…,United Kingdom
141,Delivering Brexit ought to be easier tham delivering Corbyn? https://t.co/IdTByLCbu8,United Kingdom
142,"Corbyn’s agenda is confusing, but increasingly we understand he’s pro Brexit and against a second vote. This is why… https://t.co/QK3aljCWk2",Australia
143,"RT @Femi_Sorry: Kate Andrews says that the government has failed if they don't deliver the ""Brexit the way that it should have"". 
Brexit wa…",United Kingdom
144,"RT @steven_winstone: Bookies now have Brexit Party at 1/3 on to win the EU elections. 

30-40 seats isn’t unrealistic. https://t.co/5ytqoJe…",United Kingdom
145,@bbcqt when did the actual result of the #brexit referendum which was half of those that voted voted #leave &amp; 1/3 o… https://t.co/EGqxS0by8A,Antarctica
146,RT @Femi_Sorry: If you voted Brexit because the political class has failed to give a crap about the struggle of life in your area for decad…,United Kingdom
147,@David_Cameron @RebeccaHarrisMP @Conservatives Brexit cop-out,United States
148,"RT @bbcquestiontime: ‘It’s taking longer to detach from Europe politically than it did geologically’ 
Comedian @TheSimonEvans on Brexit. #b…",United Kingdom
149,@PolhomeEditor Tom Watson will talk about anything to distract attention from Corbyn's Brexit and antisemitism chaos.,United Kingdom
150,@sara_brunel if their is no brexit candidate to vote for then you are excuse the pun fucked up the arse with no where to go,United Kingdom
151,did simon edwards just equate the troubles to a march for Brexit?#bbcqt,United Kingdom
152,RT @DavidJFHalliday: Brexit makes the case for an independent Scotland https://t.co/sTOlC6dAn4,United Kingdom
153,"RT @DougChapmanSNP: Some commentators are coming to terms with reality : Brexit makes the case for an independent Scotland 

https://t.co/G…",United Kingdom
154,"@SovietJohnny77 @lighthouse50_ @BethRigby @JamesCleverly The Brexit party are a single issue party, why would they… https://t.co/L74CzgJAJV",United Kingdom
155,@Zipper282 @bbcquestiontime Interesting how that’s how you interpret that. We will still be leaving but all experts… https://t.co/CatilIC4Bd,South Africa
156,RT @JGForsyth: The falling Tory poll rating suggests that there is little electoral future for the party unless it gets Britain out of the…,Dominica
157,"RT @LeaveEUOfficial: WATCH | @KateAndrs: ""A customs union means the EU will continue to set UK taxes when the UK does not have a seat at th…",United States
158,"RT @caitlinmoran: Today's cognitive dissonance: those on the left who hate Tony Blair for being a calculating centrist, but passionately de…",United States
159,RT @BBCJamesCook: What’s most interesting about these articles arguing that Brexit strengthens the case for Scottish independence is where…,United Kingdom
160,"RT @GiuliaSavini1: Labour Policy on #Brexit explained: 

The #labour Party will support a #peoplesvote ONLY after trying to:

- call a Gene…",United Kingdom
161,@Mr_W_Carpenter I literally wrote BREXIT across my paper. Felt good.,United Arab Emirates
162,@theatlasofworld And still discussing brexit,Anguilla
163,"RT @EdTech_Stories: What is the point of @bbcquestiontime? 

It's not as if any MPs listen to the 'Little People' in their security leaking…",United Kingdom
164,RT @bbcquestiontime: ‘What I’m tired of is politicians telling me I didn’t know what I was voting for… yes I did. I voted out’ says this au…,United Kingdom
165,"RT @LeaveEUOfficial: ""The inability to deliver Brexit is eating away at our historic democracy"", writes @zatzi for the @Spectator as she ex…",United Kingdom
166,RT @Femi_Sorry: If you voted Brexit because the political class has failed to give a crap about the struggle of life in your area for decad…,United Kingdom
167,@OwenJones84 I have read your article. You are chastising Remainers for still being Remainers (56% in recent polls)… https://t.co/sioiXHSind,United Kingdom
168,There’s no such solution as having a Brexit Cake 🍰 &amp; eating it. Even though my opinion is that we should remain &amp; s… https://t.co/S829qRz4dN,United Kingdom
169,"@chrisgreybrexit @PandaScottish Oi, that's my line ☺! 
But I agree, bcs Brexiters dont know what their Brexit is and can't agree.",United States
170,"RT @ScoPoliticsNews: FM @NicolaSturgeon: ""It's very brave of Jackson Carlaw to stand up here today and talk  about currency. Would he care…",United Kingdom
171,"Brexit is like a divorce where you also have to disassemble the kids. It's never going to work, however much you might wish it #bbcqt",United Kingdom
172,@paulmasonnews Not voting for a party intent on delivering #Brexit.  A Brexit vote won by deception &amp; not on clear… https://t.co/0Dht0wRbcM,Turkey
173,"RT @WestmonsterUK: PETERBOROUGH: By-Election to take place on 6th June. 

Nigel Farage has confirmed that the Brexit Party will be standing…",United States
174,"RT @Rachel5742: GET OUT &amp; VOTE!

1. Don't fall the BS that #LocalElections2019 isn't about #Brexit.
If it happens more time &amp; treasure will…",Gibraltar
175,RT @IanDunt: The trouble is the Remain vote is fractured by Labour refusing to take a stand and Remain parties refusing to work together. B…,United States
176,RT @NHSforPV: Never forget: https://t.co/QN1wL86vmy,Australia
177,RT @KilclooneyJohn: PM sacks a BREXIT Cabinet Minister and appoints another Remainer to the Cabinet! Reach your own conclusions why she opp…,United Kingdom
178,"RT @JamesColdwellUK: The NEC's decision on Brexit was the final straw. More or less ten years to the day since I joined, I have left the La…",France
179,"RT @lisaocarroll: This is a bit of a bombshell for Northern Ireland - Bombardier to sell Belfast business. The aerospace giant employs 4,00…",United Kingdom
180,"RT @Brexit_Support: Petition to deselect Yvette Cooper MP signed more than 22,900 times  @YvetteCooperMP TIME FOR CHANGE. we need to get ri…",United Kingdom
181,RT @EdeDinant: Guy Verhofstadt is going door knocking for the Lib Dems' EU election candidates https://t.co/kepTpkEtDf,United States
182,Labour policy maker #brexit https://t.co/nnhGZMcz6i,New Zealand
183,@EmilyThornberry on #bbcqt making it as plain as could be that Labour are using Brexit for nothing other than their… https://t.co/vQRGw9GYz9,Russia
184,"‘It’s taking longer to detach from Europe politically than it did geologically’ 
Comedian @TheSimonEvans on Brexit.… https://t.co/qgSx5Ih32c",Russia
185,"RT @Femi_Sorry: Kate Andrews says that the government has failed if they don't deliver the ""Brexit the way that it should have"". 
Brexit wa…",Gibraltar
186,RT @PeterGrantMP: Please God let lots of Brexit candidates lose as a result of their voters not realising that doing this counts as a spoil…,United Kingdom
187,"RT @SiobhanBenita: Sending the very best of luck to all our amazing candidates and activists in the #LocalElections2019 today. 
People up a…",United Kingdom
188,"@bbcquestiontime @SoniaSodha says we cannot honour the Good Friday agreement and leave the EU! 
I want to honour th… https://t.co/st3gB1aE5m",United Kingdom
189,Leader of @PompeyToryParty @DonnaPCC is wearing ANOTHER great blue dress and is a bit concerned about turnout. Has… https://t.co/5yeIObgjIQ,United Kingdom
190,"RT @afneil: Bank of England now quite cheery: forecasts GDP growth 1.5% 2019, 1.6% 2020 and 2% 2021 (upgrades Feb's forecasts of 1.2%, 1.5%…",United Kingdom
191,RT @ftwestminster: Brexit makes the case for an independent Scotland https://t.co/Hmpq37H6Q2,United Kingdom
192,"The Brexit Party will do extraordinarily well in the EU Parliamentary elections. I do not get on with Nigel Farage,… https://t.co/d7duZmSqHL",United Kingdom
193,"RT @andydenison: For the first time in my voting life, I have felt that I had no choice but to spoil my ballot paper. I will never trust th…",Germany
194,"RT @Scientists4EU: Great to see such scientific and technological ambition, investment and drive from the EU 👏👏

Sadly, post-Brexit there m…",United States
195,"@campbellclaret To paraphrase Thatcher. I will not give Labour 'the oxygen of publicity' if my vote can, in any way… https://t.co/VGytiVnNBa",Russia
196,RT @bbcquestiontime: ‘What I’m tired of is politicians telling me I didn’t know what I was voting for… yes I did. I voted out’ says this au…,United States
197,"RT @robsmith286: @IanDunt How far will they go back?
I think my dad's mum is from Wales. I may not be wholly *gasps* English.

Go back a bi…",Gibraltar
198,"RT @gavinesler: No prime minister can bind their successor, so Theresa May can agree with Jeremy Corbyn for a soft Tory Brexit and as soon…",United Kingdom
199,RT @liamyoung: Millions of people are struggling and have been left destitute by the Tories. Look at the way some have been left to die at…,United Kingdom
200,why are you talking to her then @emilythornberry you stupid woman ... #brexit #bbcqt,United Kingdom
201,RT @nickreeves9876: I still see Remainers saying the #EUelections2019 are not a surrogate referendum and that the number of seats won won't…,Australia
202,RT @greenrascal_: @bbclaurak @huwbbc @reetacbbc @JohnCurticeOnTV Parties pre-#LocalElection2019 It has nothing to do with #Brexit it's abou…,United Kingdom
203,@SkyNewsPolitics @SkyNews So make a decision and say you genuinely oppose #brexit,Switzerland
204,"RT @GerryHassan: .@iealondon @KateAndrs says politicians just ""dont get it"" re #Brexit on #bbcqt. What Kate &amp; the IEA just dont get as simi…",United Kingdom
205,"RT @NeilDrysdale: David Cameron, the former Tory PM who precipitated all this Brexit chaos in the first place, is getting £750,000 for his…",United Kingdom
206,"RT @ScoPoliticsNews: FM @NicolaSturgeon: ""It's very brave of Jackson Carlaw to stand up here today and talk  about currency. Would he care…",United Kingdom
207,"RT @BrianNights01: Brexit was built on lies, Labour are working with the Conservatives to deliver a brexit which is going to make this coun…",Russia
208,"RT @Femi_Sorry: If you voted Brexit because you could see the UK needed fixing...
A man who responds to a nurse who's panicking about the i…",United Kingdom
209,Emily Thornberry trying to explain Labour's Brexit policy. How well is that going? How well do you think it's going… https://t.co/RaoQEUoCJI,United Kingdom
210,"@bbcquestiontime , @EmilyThornberry is a hypocrite, she has just said she is a democrat and must deliver on#brexit… https://t.co/TnVJjyQhHR",Somalia
211,@bbcquestiontime #bbcqt #brexit #FailingGrayling Seems to have no problem burning taxpayer money on the… https://t.co/sLrFse7PfA,France
212,"RT @Rachel5742: GET OUT &amp; VOTE!

1. Don't fall the BS that #LocalElections2019 isn't about #Brexit.
If it happens more time &amp; treasure will…",United Kingdom
213,"RT @BenJamminWalker: *POLL* Which party will you vote for in next months #EuropeanElections? 🗳

Retweet for a Larger Sample!

#Brexit #Peop…",United States
214,RT @BJ_Gardener: @OwenJones84 Labour have lost it as far as Remainers goes. I’m not voting for a soft Brexit party. I’m voting #Remain,Australia
215,@colingale I think calling it the Brexit Party was a smart move by them - it's the only reason I expect them to mat… https://t.co/quhXPU6TaC,United Kingdom
216,"@bbcquestiontime @Conservative Something serious was going on, for why would she want to deflect the smear campaign… https://t.co/vzfhVzTMFh",United Kingdom
217,"Stuck with a leader who’s lost all her authority, the Tories are imploding 

@theresa_may 
@DLidington… https://t.co/e33OaWYwmE",United Kingdom
218,"RT @Femi_Sorry: If you voted Brexit because you care deeply about the NHS, because you know it's one of the best things about the UK, as it…",United Kingdom
219,"@Linda_Marric That is fine and I can understand why you would feel that way.

I just worry that oppression leads to… https://t.co/1WrQsYuaWM",United Kingdom
220,"RT @Femi_Sorry: Kate Andrews says that the government has failed if they don't deliver the ""Brexit the way that it should have"". 
Brexit wa…",Russia
221,RT @mrjamesob: So people who want to stop Brexit should vote for a party that doesn't want to stop Brexit in order to stop another party th…,Australia
222,RT @jwathenbtinter1: @bbcquestiontime AND NOT ONE OF THEM IS PRO BREXIT! BBC GUILTY AS CHARGED!,Russia
223,RT @alicehbloom: @OwenJones84 I respect you a lot Owen but surely you can see how many Remainers are struggling to vote Labour because of i…,Australia
224,RT @Femi_Sorry: If you voted Brexit because the political class has failed to give a crap about the struggle of life in your area for decad…,United Kingdom
225,"@Pandipops @sumdementedgeez @JacquelineDeeb1 ""But I was happy to vote for Blair, who gave us the Iraq war. Blair wa… https://t.co/AoZJ1GlNMn",United Kingdom
226,@tpo_renewed if the dont put candidates in all areas and raise funds to do they weill never grow the brexit party i… https://t.co/5Jh776Y4sq,United Kingdom
227,RT @kirstenpolitics: Fall from 10% to 9% for Change UK while @brexitparty_uk has 30% lead. What happened to everyone switching to Remain?…,United Kingdom
228,"RT @ElizabethBangs: It turns out it's easy to win a referendum. All you have to do is tell some big, fat lies. #Brexit #europeanunion",Russia
229,RT @piersmorgan: BREAKING: Brexit may not wreck the UK economy after all.... 😲 https://t.co/9tpLhNCmOv,United Kingdom
230,"RT @UKunityorg: The United Kingdom wants a WTO Brexit, we are sick of the political class refusing to submit to the will of the British peo…",United Kingdom
231,RT @BrexitGremlin: Thread on how #Brexit is an assault on democracy. https://t.co/hgRUzKrDwG,United Kingdom
232,@NileGardiner @TelegraphNews But why did Pompeo sneak in to the US a banned by US law Russian spy chief for secret… https://t.co/Xkc3W8sBZX,United States
233,RT @johnfmcgowan: BREAKING NEWS: DUP Brexit Strategy big factor in Bombardier putting Belfast factory up for sale. 3500 direct jobs at risk…,United Kingdom
234,"RT @forexflowlive: $GBP nods off during #BOE presser.

$GBPUSD doing nothing at 1.3045

$EURGBP doing nothing at 0.8590

$GBPJPY doing noth…",United Kingdom
235,#brexit is groundhog day #bbcqt,Anguilla
236,"RT @Change_Britain: Emily Thornberry says she's been ""trying to keep the government honest"" on Brexit. Hmmm #bbcqt https://t.co/aF93JL6UEM",United Kingdom
237,"RT @WestmonsterUK: BIG: 60% of Leave voters now backing the Brexit Party, YouGov find. https://t.co/n81wvJHNcn",United Kingdom
238,"Cabinet leak culture has damaged Brexit process, says Hunt #stopbrexit https://t.co/SMkXJuD4gB",United Kingdom
239,"When's storytime with May and Corbyn selling #Brexit down the river whilst the saviour boys do fuck all, I'm waitin… https://t.co/TdYWUPzwyR",United Kingdom
240,"On Question Time, Labour Shadow Foreign Secretary describes Brexit as UK sailing off to the Mid Atlantic and saying… https://t.co/OxLzuNwYk7",United Kingdom
241,"RT @StevieJ2019: IDS on the Williamson sacking

""Will a similar inquiry take place into who leaked the Cabinet Secretary’s peculiarly hyste…",United Kingdom
242,"RT @migthewelshman: I voted Leave in 2016. I am not stupid, I am not a racist. I was lied to. My brexit story. https://t.co/sqM0IPognl",United Kingdom
243,RT @Nigel_Farage: I’ll be in Fylde with Ann Widdecombe and the North West MEP candidates this Saturday for a major Brexiteer rally! Book no…,United Kingdom
244,"I don't personally like Brexit but lots of you do, so word salad. #bbcqt https://t.co/wn9wr8fK5i",Belgium
245,"RT @LeaveEUOfficial: WATCH | @KateAndrs: ""A customs union means the EU will continue to set UK taxes when the UK does not have a seat at th…",United Kingdom
246,"Time to put the kettle on, Brexit. Same old arguments.  #bbcqt https://t.co/SGWmvSHUJG",United Kingdom
247,RT @Feorlean: An inconsistency in Ruth Davidson’s message - she wants dialogue &amp; compromise on #Brexit because she says it is divisive but…,United Kingdom
248,Absolutely sick of Brexit it is Groundhog Day #bbcqt,United States
249,RT @bbcquestiontime: ‘What I’m tired of is politicians telling me I didn’t know what I was voting for… yes I did. I voted out’ says this au…,United Kingdom
250,RT @Lordbrexit: @JohnnyMercerUK I thought you was supposed to be an Mp it sounds like you are a chav if you condone this violence #brexit,United States
251,@bbcquestiontime A lot of those that voted leave had their votes swung to #brexit on the political statements of… https://t.co/Vw31iwFHfS,United Kingdom
252,RT @bbcquestiontime: ‘What I’m tired of is politicians telling me I didn’t know what I was voting for… yes I did. I voted out’ says this au…,Chile
253,"RT @JayneLinney: “Is #Grayling really worth so much to #May that she’s happy to foot an £83MILLION bill racked up in just five months?

Chr…",United Kingdom
254,RT @Rache133: @Jacob_Rees_Mogg We acknowledge your threat. But we're still going to make sure the Tories lose every election from now until…,United Kingdom
255,RT @bbcquestiontime: ‘What I’m tired of is politicians telling me I didn’t know what I was voting for… yes I did. I voted out’ says this au…,United Kingdom
256,RT @lewis_goodall: Astounding. Am told by a Conservative source that two Tory Euro election candidates on one of the party’s regional lists…,United Kingdom
257,"RT @OwenPaterson: ""Tories can...unleash game-changing tax cuts &amp; promote entrepreneurship...&amp; they can deliver a hardcore Brexit for the Eu…",Germany
258,"RT @NJamesWorld: Remoaner MPs say Brexit will cost jobs.

They are right 
Hundreds of Tory councillors will be out of work tonight, Tory an…",Russia
259,"Why are the idiots who have no comprehension of the complexity of the issues concerned with Brexit, beyond the simp… https://t.co/dRctrHvGSY",United States
260,RT @Tom___Scott: To find out more about unaccountable far-right lobby groups like the IEA &amp; their role in promoting Brexit in the interests…,United Kingdom
261,"RT @tesssummers98: It was this creep who stopped no deal Brexit: """"In March, Sir Mark took the unusual step of writing a 14-page letter to…",United Kingdom
262,"RT @LeaveEUOfficial: WATCH | @KateAndrs: ""A customs union means the EU will continue to set UK taxes when the UK does not have a seat at th…",Ireland
263,"RT @andydenison: For the first time in my voting life, I have felt that I had no choice but to spoil my ballot paper. I will never trust th…",United States
264,@francesweetman @EuanPhilipps Absolutely. There are many good people still in Labour but any vote for Labour anytim… https://t.co/rOwNHwsgI1,United Kingdom
265,"RT @estwebber: Donald Tusk: don't waste this time

UK: sack the defence sec
royal baby?
euro elections 
check facebook 
woo! summer! 
front…",United States
266,"RT @AndyMcDonaldMP: Chris Grayling ignored procurement rules that were put in place to stop public money being wasted

He negotiated contra…",United Kingdom
267,"RT @afneil: Bank of England now quite cheery: forecasts GDP growth 1.5% 2019, 1.6% 2020 and 2% 2021 (upgrades Feb's forecasts of 1.2%, 1.5%…",United Kingdom
268,RT @kirstenpolitics: Fall from 10% to 9% for Change UK while @brexitparty_uk has 30% lead. What happened to everyone switching to Remain?…,United Kingdom
269,.@LabourCopeland candidate Linda Jones-Bulman has also told us she believes it has been a low turnout and suspects… https://t.co/u6IbROS8Z9,United Kingdom
270,"RT @LeaveEUOfficial: WATCH | @KateAndrs: ""A customs union means the EU will continue to set UK taxes when the UK does not have a seat at th…",United Kingdom
271,RT @carole99897: REVEALED: How YOU pay for Roma gypsy palaces - UK benefits funding Romanian mansions https://t.co/7RnAR0nieq,United Kingdom
272,"RT @BBCPolitics: ""We want to stay in Europe, so we can change it,"" says Plaid Cymru's Leader Adam Price as he launches the party's European…",Jamaica
273,"@brexitparty_uk @GawainTowler After many hours on polling stations today, the only politician to be mentioned posit… https://t.co/awSS6CJaD0",United States
274,"RT @BrexitCentral: ""Can I conclude from what you're saying to me that you would not support a no-deal Brexit?"" @DavidTCDavies asks the Prim…",United Kingdom
275,RT @griffitygriff: Brexit Party Spiked - Nigel Farage's Disastrous RCP Candidates https://t.co/EkfQKT797a via @BylineTimes,Zimbabwe
